 ___                 _                   _   ___       _
| . \ ___  _ _  ___ | | ___  ___  ___  _| | | . > _ _ <_>
| | |/ ._>| | |/ ._>| |/ . \| . \/ ._>/ . | | . \| | | _
|___/\___.|__/ \___.|_|\___/|  _/\___.\___| |___/`_. |<_>
                            |_|                  <___'
          __ __        _      _     _ _ _  _  _  _
         |  \  \ ___ _| |_  _| |_  | | | |<_>| || | _ _
         |     |<_> | | |    | |   | | | || || || || | |
         |_|_|_|<___| |_|    |_|   |__/_/ |_||_||_|`_. |
                                                   <___'